[
  {
    "title": "We do care",
    "description": "Appreciate your business,  value your time",
    "icon": "care"
  },
  {
    "title": "Individual approach",
    "description": "Each client is unique and deserves its own approach",
    "icon": "unique"
  },
  {
    "title": "Long term relationships",
    "description": "We give lifetime warranty for our work",
    "icon": "calendar"
  },
  {
    "title": "Keep it simple and clear",
    "description": "Transparent workflow, simple and clear communications",
    "icon": "clear"
  },
  {
    "title": "Assured result",
    "description": "Proven technologies & trustfull solutions only",
    "icon": "result"
  },
  {
    "title": "Confidentiality",
    "description": "Your secrets stay with you, ready to sign NDA",
    "icon": "nda"
  }
]